module gitlab.privy.id/privypass/privypass-oauth2-core-se

go 1.17

require (
	cloud.google.com/go/storage v1.21.0
	github.com/Shopify/sarama v1.32.0
	github.com/aws/aws-sdk-go v1.43.26
	github.com/brainlabs/snowflake v0.3.0
	github.com/go-ozzo/ozzo-validation/v4 v4.3.0
	github.com/go-redis/redis/v8 v8.11.5
	github.com/go-sql-driver/mysql v1.6.0
	github.com/gorilla/mux v1.8.0
	github.com/gorilla/schema v1.2.0
	github.com/jmoiron/sqlx v1.3.4
	github.com/opentracing/opentracing-go v1.2.0
	github.com/pressly/goose/v3 v3.5.3
	github.com/sirupsen/logrus v1.8.1
	github.com/spf13/cast v1.4.1
	github.com/spf13/cobra v1.4.0
	github.com/stretchr/testify v1.7.1
	github.com/thedevsaddam/govalidator v1.9.10
	github.com/xdg/scram v1.0.5
	github.com/ziutek/mymysql v1.5.4
	google.golang.org/api v0.73.0
	gopkg.in/DataDog/dd-trace-go.v1 v1.37.0
	gopkg.in/yaml.v3 v3.0.0-20210107192922-496545a6307b
)

require (
	github.com/felixge/httpsnoop v1.0.1 // indirect
	github.com/golang/mock v1.6.0 // indirect
	github.com/rabbitmq/amqp091-go v1.3.4 // indirect
)

require (
	cloud.google.com/go v0.100.2 // indirect
	cloud.google.com/go/compute v1.5.0 // indirect
	cloud.google.com/go/iam v0.1.1 // indirect
	github.com/DataDog/datadog-agent/pkg/obfuscate v0.0.0-20211129110424-6491aa3bf583 // indirect
	github.com/DataDog/datadog-go v4.8.2+incompatible // indirect
	github.com/DataDog/datadog-go/v5 v5.0.2 // indirect
	github.com/DataDog/sketches-go v1.0.0 // indirect
	github.com/Microsoft/go-winio v0.5.1 // indirect
	github.com/cenkalti/backoff/v4 v4.2.0
	github.com/cespare/xxhash/v2 v2.1.2 // indirect
	github.com/davecgh/go-spew v1.1.1 // indirect
	github.com/dgraph-io/ristretto v0.1.0 // indirect
	github.com/dgryski/go-rendezvous v0.0.0-20200823014737-9f7001d12a5f // indirect
	github.com/dustin/go-humanize v1.0.0 // indirect
	github.com/eapache/go-resiliency v1.2.0 // indirect
	github.com/eapache/go-xerial-snappy v0.0.0-20180814174437-776d5712da21 // indirect
	github.com/eapache/queue v1.1.0 // indirect
	github.com/golang-jwt/jwt v3.2.2+incompatible
	github.com/golang/glog v0.0.0-20160126235308-23def4e6c14b // indirect
	github.com/golang/groupcache v0.0.0-20200121045136-8c9f03a8e57e // indirect
	github.com/golang/protobuf v1.5.2 // indirect
	github.com/golang/snappy v0.0.4 // indirect
	github.com/google/go-cmp v0.5.7 // indirect
	github.com/google/uuid v1.3.0
	github.com/googleapis/gax-go/v2 v2.1.1 // indirect
	github.com/gorilla/handlers v1.5.1
	github.com/gorilla/websocket v1.5.0
	github.com/hashicorp/go-uuid v1.0.2 // indirect
	github.com/inconshreveable/mousetrap v1.0.0 // indirect
	github.com/jcmturner/aescts/v2 v2.0.0 // indirect
	github.com/jcmturner/dnsutils/v2 v2.0.0 // indirect
	github.com/jcmturner/gofork v1.0.0 // indirect
	github.com/jcmturner/gokrb5/v8 v8.4.2 // indirect
	github.com/jcmturner/rpc/v2 v2.0.3 // indirect
	github.com/jmespath/go-jmespath v0.4.0 // indirect
	github.com/josharian/intern v1.0.0 // indirect
	github.com/klauspost/compress v1.14.4 // indirect
	github.com/lib/pq v1.10.7
	github.com/mailru/easyjson v0.7.7 // indirect
	github.com/philhofer/fwd v1.1.1 // indirect
	github.com/pierrec/lz4 v2.6.1+incompatible // indirect
	github.com/pkg/errors v0.9.1 // indirect
	github.com/pmezard/go-difflib v1.0.0 // indirect
	github.com/rcrowley/go-metrics v0.0.0-20201227073835-cf1acfcdf475 // indirect
	github.com/spf13/pflag v1.0.5 // indirect
	github.com/tinylib/msgp v1.1.2 // indirect
	github.com/wagslane/go-rabbitmq v0.11.1
	github.com/xdg/stringprep v1.0.0 // indirect
	go.opencensus.io v0.23.0 // indirect
	golang.org/x/crypto v0.0.0-20220214200702-86341886e292 // indirect
	golang.org/x/net v0.0.0-20220225172249-27dd8689420f // indirect
	golang.org/x/oauth2 v0.0.0-20220309155454-6242fa91716a // indirect
	golang.org/x/sys v0.0.0-20220310020820-b874c991c1a5 // indirect
	golang.org/x/text v0.3.7 // indirect
	golang.org/x/time v0.0.0-20211116232009-f0f3c7e86c11 // indirect
	golang.org/x/xerrors v0.0.0-20200804184101-5ec99f83aff1 // indirect
	google.golang.org/appengine v1.6.7 // indirect
	google.golang.org/genproto v0.0.0-20220310185008-1973136f34c6 // indirect
	google.golang.org/grpc v1.45.0 // indirect
	google.golang.org/protobuf v1.27.1 // indirect
)
